\headcommand {\slideentry {0}{0}{1}{1/1}{}{0}}
\headcommand {\beamer@framepages {1}{1}}
\headcommand {\slideentry {0}{0}{2}{2/2}{}{0}}
\headcommand {\beamer@framepages {2}{2}}
\headcommand {\beamer@sectionpages {1}{2}}
\headcommand {\beamer@subsectionpages {1}{2}}
\headcommand {\sectionentry {1}{System Description}{3}{System Description}{0}}
\headcommand {\slideentry {1}{0}{1}{3/3}{}{0}}
\headcommand {\beamer@framepages {3}{3}}
\headcommand {\slideentry {1}{0}{2}{4/4}{}{0}}
\headcommand {\beamer@framepages {4}{4}}
\headcommand {\beamer@sectionpages {3}{4}}
\headcommand {\beamer@subsectionpages {3}{4}}
\headcommand {\sectionentry {2}{System Analysis \& Requirement Specification}{5}{System Analysis \& Requirement Specification}{0}}
\headcommand {\slideentry {2}{0}{1}{5/5}{}{0}}
\headcommand {\beamer@framepages {5}{5}}
\headcommand {\slideentry {2}{0}{2}{6/6}{}{0}}
\headcommand {\beamer@framepages {6}{6}}
\headcommand {\slideentry {2}{0}{3}{7/7}{}{0}}
\headcommand {\beamer@framepages {7}{7}}
\headcommand {\slideentry {2}{0}{4}{8/8}{}{0}}
\headcommand {\beamer@framepages {8}{8}}
\headcommand {\slideentry {2}{0}{5}{9/9}{}{0}}
\headcommand {\beamer@framepages {9}{9}}
\headcommand {\slideentry {2}{0}{6}{10/10}{}{0}}
\headcommand {\beamer@framepages {10}{10}}
\headcommand {\beamer@sectionpages {5}{10}}
\headcommand {\beamer@subsectionpages {5}{10}}
\headcommand {\sectionentry {3}{SRS Document}{11}{SRS Document}{0}}
\headcommand {\slideentry {3}{0}{1}{11/11}{}{0}}
\headcommand {\beamer@framepages {11}{11}}
\headcommand {\beamer@subsectionpages {11}{11}}
\headcommand {\beamer@subsectionentry {0}{3}{1}{12}{Determine Actor-Usecase}}
\headcommand {\slideentry {3}{1}{1}{12/12}{Determine Actor-Usecase}{0}}
\headcommand {\beamer@framepages {12}{12}}
\headcommand {\slideentry {3}{1}{2}{13/13}{Determine Actor-Usecase}{0}}
\headcommand {\beamer@framepages {13}{13}}
\headcommand {\slideentry {3}{1}{3}{14/14}{Determine Actor-Usecase}{0}}
\headcommand {\beamer@framepages {14}{14}}
\headcommand {\beamer@subsectionpages {12}{14}}
\headcommand {\beamer@subsectionentry {0}{3}{2}{15}{UseCase Diagram}}
\headcommand {\slideentry {3}{2}{1}{15/15}{UseCase Diagram}{0}}
\headcommand {\beamer@framepages {15}{15}}
\headcommand {\beamer@subsectionpages {15}{15}}
\headcommand {\beamer@subsectionentry {0}{3}{3}{16}{Use-Case Description}}
\headcommand {\slideentry {3}{3}{1}{16/16}{Use-Case Description}{0}}
\headcommand {\beamer@framepages {16}{16}}
\headcommand {\slideentry {3}{3}{2}{17/17}{Use-Case Description}{0}}
\headcommand {\beamer@framepages {17}{17}}
\headcommand {\slideentry {3}{3}{3}{18/18}{Use-Case Description}{0}}
\headcommand {\beamer@framepages {18}{18}}
\headcommand {\slideentry {3}{3}{4}{19/19}{Use-Case Description}{0}}
\headcommand {\beamer@framepages {19}{19}}
\headcommand {\slideentry {3}{3}{5}{20/20}{Use-Case Description}{0}}
\headcommand {\beamer@framepages {20}{20}}
\headcommand {\slideentry {3}{3}{6}{21/21}{Use-Case Description}{0}}
\headcommand {\beamer@framepages {21}{21}}
\headcommand {\slideentry {3}{3}{7}{22/22}{Use-Case Description}{0}}
\headcommand {\beamer@framepages {22}{22}}
\headcommand {\slideentry {3}{3}{8}{23/23}{Use-Case Description}{0}}
\headcommand {\beamer@framepages {23}{23}}
\headcommand {\slideentry {3}{3}{9}{24/24}{Use-Case Description}{0}}
\headcommand {\beamer@framepages {24}{24}}
\headcommand {\slideentry {3}{3}{10}{25/25}{Use-Case Description}{0}}
\headcommand {\beamer@framepages {25}{25}}
\headcommand {\slideentry {3}{3}{11}{26/26}{Use-Case Description}{0}}
\headcommand {\beamer@framepages {26}{26}}
\headcommand {\slideentry {3}{3}{12}{27/27}{Use-Case Description}{0}}
\headcommand {\beamer@framepages {27}{27}}
\headcommand {\slideentry {3}{3}{13}{28/28}{Use-Case Description}{0}}
\headcommand {\beamer@framepages {28}{28}}
\headcommand {\slideentry {3}{3}{14}{29/29}{Use-Case Description}{0}}
\headcommand {\beamer@framepages {29}{29}}
\headcommand {\beamer@partpages {1}{29}}
\headcommand {\beamer@subsectionpages {16}{29}}
\headcommand {\beamer@sectionpages {11}{29}}
\headcommand {\beamer@documentpages {29}}
\headcommand {\gdef \inserttotalframenumber {29}}
